{
  "post_data": [
    {
      "ID": "6191",
      "post_title": "Test post new",
      "post_date": "2016-01-22 05:37:45",
      "post_content": "my new post",
      "url": "http://demotest.a3logics.com/mlife/test-post-new/?autologin_code=M7ODgQwIyX903UmWAJoV2PtUI1s3vv",
      "image": "Featured image not found"
    },
    {
      "ID": "6159",
      "post_title": "Having Trouble with Your Email Signatures?",
      "post_date": "2016-01-11 16:27:57",
      "post_content": "Hi everyone!\r\n\r\n&nbsp;\r\n\r\nSome of you may have noticed that the image in your email signature is broken. Don’t fret! Here is how you can fix it:\r\n\r\n&nbsp;\r\n\r\nDownload your eye-con from this Logos folder. In your email Settings, under the Signature setting, insert the new image to replace the broken one.\r\n\r\n&nbsp;\r\n\r\nIf you need to replace your entire signature…\r\n\r\n&nbsp;\r\n\r\n\tUsing Gmail or Outlook: Copy your preferred signature from this Email Signatures document. If the image of the eye-con is missing, please download it from the Logos folder. Don’t forget to update your information, as well as all links to social media!\r\n\tUsing Mac Mail: Please refer to this Word doc and follow instructions from there.\r\n\r\n&nbsp;\r\n\r\nAfter these simple steps, your signature should be back up and running! If you have any questions, please email branding@meltwater.com.\r\n\r\n&nbsp;\r\n\r\nThanks,\r\n\r\nJanel\r\n\r\n&nbsp;\r\n\r\nYou can tag colleagues in the comments below by using the hashtag symbol and their email address, for example: #janel.ahrens@meltwater.com\r\n\r\n&nbsp;",
      "url": "http://demotest.a3logics.com/mlife/having-trouble-with-your-email-signatures/?autologin_code=M7ODgQwIyX903UmWAJoV2PtUI1s3vv",
      "image": "http://demotest.a3logics.com/mlife/wp-content/uploads/2016/01/Confused-Cartoon_Featured.png"
    },
    {
      "ID": "6162",
      "post_title": "Million Dollar Club: Bryan Pfeiffer, CA Austin",
      "post_date": "2016-01-11 16:27:32",
      "post_content": "A Texan through and through, Bryan Pfeiffer has been a part of the Meltwater Austin office for almost 4 years, where he is now a successful Sales Manager thanks to the likes of former MD Cindy Carey Crowe (currently on maternity leave) and recent cowboy additions SM Ben Kessler and MD Ryan Reeves.\r\n\r\n&nbsp;\r\n\r\nIn September 2015, Bryan secured a coveted spot in the Million Dollar Club. In his time at Meltwater, he’s brought on board some pretty cool companies, such as Quicken Loans, Guinness World Records, and Alaska Airlines.\r\n\r\n&nbsp;\r\n\r\nCheck out his interview below to learn more about Austin’s “Bearded Hero” and his advice for nailing sales!\r\n\r\n&nbsp;\r\n\r\n&nbsp;\r\n\r\nYou can tag colleagues in the comments below by using the hashtag symbol and their email address, for example: #bryan.pfeiffer@meltwater.com \r\n\r\n&nbsp;",
      "url": "http://demotest.a3logics.com/mlife/million-dollar-club-bryan-pfeiffer-ca-austin/?autologin_code=M7ODgQwIyX903UmWAJoV2PtUI1s3vv",
      "image": "http://demotest.a3logics.com/mlife/wp-content/uploads/2016/01/Bryan-Pfeiffer-2.png"
    },
    {
      "ID": "6174",
      "post_title": "Christmas Charity Project: mBerlin Helps Refugees During the Holidays",
      "post_date": "2016-01-11 16:26:33",
      "post_content": "During the holidays, the Berlin office ran a Christmas Charity Project to support Elisabethstift, an institution dedicated to providing child and youth care. We’ve had a relationship with them for many years now, almost as long as there’s been a Berlin office.\r\n\r\n&nbsp;\r\n\r\nAt the end of 2015, the institution decided to run a special project: a refugee camp for 32 young refugees ages 16-18 in Falkenberg. They were looking to set up a fitness room for the camp and needed money donations, as well as different types of equipment.\r\n\r\n&nbsp;\r\n\r\nMeltwater decided to pitch in by holding a Charity Lunch to raise money, with contributions starting at 5 euros. The goal was to raise enough to purchase three really cool punching bags (full set-up), 6 pairs of gloves, and some free weights or barbells.\r\n\r\n&nbsp;\r\n\r\nAs expected, we had a fantastic time during the lunch, and it was especially nice knowing that we were contributing long-term to the health and happiness of those most in need during the holiday season. Thank you to everyone for your wonderful participation and contributions!\r\n\r\n&nbsp;\r\n\r\nYou can tag colleagues in the comments below by using the hashtag symbol and their email address, for example: #inga.boesecke@meltwater.com\r\n\r\n&nbsp;",
      "url": "http://demotest.a3logics.com/mlife/christmas-charity-project-mberlin-helps-refugees-during-the-holidays/?autologin_code=M7ODgQwIyX903UmWAJoV2PtUI1s3vv",
      "image": "http://demotest.a3logics.com/mlife/wp-content/uploads/2016/01/Berlin-Charity-2.png"
    },
    {
      "ID": "6178",
      "post_title": "How Good are You at Motivating Others?",
      "post_date": "2016-01-11 16:26:04",
      "post_content": "Motivating employees and colleagues can be tricky. What are the best ways to give and take feedback? Do all incentives work for everyone on the team? What’s the best way for all to work toward and achieve the same goal?\r\n\r\n&nbsp;\r\n\r\nIn a recent article published by Harvard Business Review, Juliana Schroeder and Ayelet Fishbach explore three motivational strategies: feedback, goal setting, and incentives, all of which we can relate to at Meltwater.\r\n\r\n&nbsp;\r\n\r\nAfter reviewing more than 150 scientific articles on motivation, they found that these tools, although popular in today’s working environments, can also backfire if not appropriately matched to each situation. “For example,” they write, “positive feedback can lead recipients to relax their effort, overly ambitious goals can cause employees to give up, and incentives can undermine intrinsic interest.”\r\n\r\n&nbsp;\r\n\r\nHowever, they provide three key conclusions to keep in mind that can help each of us choose the correct tactic in any given situation. Read on to find out more: Match Your Motivational Tactic to the Situation.\r\n\r\n&nbsp;\r\n\r\nInterested in further exploring the topic of motivation? There are some excellent resources within MindTools. Start with these:\r\n\r\n\tMotivation – Energizing Your People to Achieve Good Things\r\n\tTeam-Specific Motivation – Discovering Your Team’s Biggest Motivators\r\n\tHow Good are Your Motivation Skills?\r\n\r\n&nbsp;\r\n\r\nYou can tag colleagues in the comments below by using the hashtag symbol and their email address, for example: #belen.aleman@meltwater.com\r\n\r\n&nbsp;",
      "url": "http://demotest.a3logics.com/mlife/how-good-are-you-at-motivating-others/?autologin_code=M7ODgQwIyX903UmWAJoV2PtUI1s3vv",
      "image": "http://demotest.a3logics.com/mlife/wp-content/uploads/2016/01/Business-Motivation.jpg"
    },
    {
      "ID": "6149",
      "post_title": "New Year, New You, New Chance to Win an iPad Mini!",
      "post_date": "2016-01-06 15:22:11",
      "post_content": "Hello Meltwarriors!\r\n\r\n&nbsp;\r\n\r\nHappy New Year from the Learning &amp; Development team! We wish you the very best in 2016 and hope that as a part of your development this year you create a plan to take advantage of the learning resources available for all Meltwater employees inside of Mind Tools, our online training platform with more than 1000 management, leadership and personal effectiveness skills. Your Mind Tools resource is located in mAcademy in SuperAdmin.\r\n\r\n&nbsp;\r\n\r\nThis month, Mind Tools is running a scavenger hunt that focuses on goal setting and looking at the year ahead. This is a great opportunity for you to explore the vast array of self-development resources Mind Tools offers and a CHANCE TO WIN AN iPAD MINI!\r\n\r\n&nbsp;\r\n\r\nManagers: Learning &amp; Development will also be delivering training to you later this month on goal setting to help you think about how to successfully set and accomplish your personal and team goals for the quarter and year. Stay tuned…\r\n\r\n&nbsp;\r\n\r\nHow to take part in the Mind Tools Goal Setting Scavenger Hunt to win an iPad Mini:\r\n\r\n&nbsp;\r\n\r\nTo enter, simply download and complete this scavenger hunt, identify the mystery phrase, and email it to Kelsey.Batchelor@mindtools.com by Friday, January 29th. Mind Tools will then pick the winner randomly from all correct answers received.\r\n\r\n&nbsp;\r\n\r\nYou’ll need no more than 20 minutes to complete it and you’ll find all the answers by searching the Mind Tools site, so click here to get hunting!\r\n\r\n&nbsp;\r\n\r\nBest of luck!\r\n\r\n&nbsp;\r\n\r\nIf you have any questions, please tag Keely Merritt and myself in the comments below: #keely.merritt@meltwater.com &amp; #jessi.brandt@meltwater.com\r\n\r\n&nbsp;",
      "url": "http://demotest.a3logics.com/mlife/new-year-new-you-new-chance-to-win-an-ipad-mini/?autologin_code=M7ODgQwIyX903UmWAJoV2PtUI1s3vv",
      "image": "http://demotest.a3logics.com/mlife/wp-content/uploads/2016/01/Win-an-Ipad-Mini.jpg"
    },
    {
      "ID": "6089",
      "post_title": "January 7 Release: Product Quality",
      "post_date": "2016-01-05 12:59:47",
      "post_content": "Correction: the release is scheduled for January 7th, and not January 6th as previously posted.\r\n\r\n&nbsp;\r\n\r\nHi everyone and Happy New Year! It was really exciting to see the strong sales results in December. Last month, CA sales of our new product outpaced mNews sales by 5x. The thrill of closing a deal is apparent to us every time CA &amp; CS rings the bell. You can bet your multi-colored, lucky closing socks that the Product team takes a lot of pride in seeing our product literally making millions!\r\n\r\n&nbsp;\r\n\r\nIn Q4 we pushed out a number of significantly sized features that touched many aspects of the application. When we release complex features, we run the risk of also introducing defects. As a result, it made sense to spend the majority of this release on enhancing the quality of the product.\r\n\r\n&nbsp;\r\n\r\nConsequently, in the release going out tomorrow, January 7th at 5:30pm PST, you will find a number of important improvements and fixes. In addition, you’ll see updates to Add Content, two new geographies for Influencers and News Ltd. support for the iOS app. More details are available in the release notes.\r\n\r\n&nbsp;\r\n\r\nHere’s to an exciting and successful 2016!\r\n\r\n&nbsp;\r\n\r\nCheers,\r\n\r\nJonas &amp; the Product Team\r\n\r\n&nbsp;\r\n\r\nYou can tag colleagues in the comments below by using the hashtag symbol and their email address, for example: #jonas.oppedal@meltwater.com\r\n\r\n&nbsp;",
      "url": "http://demotest.a3logics.com/mlife/january-7-release-product-quality/?autologin_code=M7ODgQwIyX903UmWAJoV2PtUI1s3vv",
      "image": "http://demotest.a3logics.com/mlife/wp-content/uploads/2016/01/Release-Prod-Quality-Jan-7.png"
    },
    {
      "ID": "6071",
      "post_title": "2015: A Sales Odyssey",
      "post_date": "2016-01-04 16:53:13",
      "post_content": "Hello m|World!\r\n\r\n&nbsp;\r\n\r\nWe’ve seen tremendous sales(wo)manship this year, with company records set for both single month sales and the most dollars sold in a calendar year. Massive congrats to Yarden Sartena for pushing the envelope, blowing past her former teammate’s records, and setting two new high water marks for future Meltwatwarriors.\r\n\r\n&nbsp;\r\n\r\nHaving witnessed Sahil Manuri’s long standing Silicon Valley record broken by former title holder Aisling Blundell, I can tell you – being the best of the best of the best takes a lot of dedication, hard work, true grit and a certain special “X” factor.\r\n\r\n&nbsp;\r\n\r\nHowever, just as records are set, they are meant to be broken. Some stand the test of time for years, others do not. Regardless of how long milestones last, what is important to note is that people like Sahil Mansuri, Aisling Blundell, and Yarden Sartena come around only every so often and today we pay tribute to another name we write into the m|History books.\r\n\r\n&nbsp;\r\n\r\nBefore saying hello to 2016, no one other than Ben Kessler (formerly known as the Wolf of 14th Street) decided to go where no man or woman had gone before: $200,000 in a month.\r\n\r\n&nbsp;\r\n\r\nOr, to be precise, $291,445 in a single month. A mind blowing 1,305% of a full target and more than $102,000 above the previous record!\r\n\r\n&nbsp;\r\n\r\nHere’s some perspective – Back in the day of $20,000 USD quotas, $290,000 got you into the Global Top 10 and amounted to 100%+ of your yearly target. Insane.\r\n\r\n&nbsp;\r\n\r\nDecember is all about magic and making the most of your time in the office, but Ben went above and beyond to make this dream a reality. He paved the way for future FairHair applications, a $100,000+ upsale from a certain Fortune 50 company helped, as well as another Enterprise Solutions deal from the tiny automaker, BMW. Having witnessed the excruciating attention to detail, the 50+ page RFPs, long hours spent in the office after work and commitment to excellence – I can say that Ben’s December was nothing short of amazing.\r\n\r\n&nbsp;\r\n\r\nLuck played no such role in this milestone, as sheer determination was the name of his game.\r\nAside from witnessing Ben break the single month sales record in December, something else I thought was really cool was watching how he went about setting the single year record for sales.\r\n\r\n&nbsp;\r\n\r\nI know Ben and Yarden are best friends and watching how two people can push one another, challenge each other to dig deeper, fight harder and do so with a smile on their faces was incredible. It is something I think is especially unique to Meltwater and would be hard to find elsewhere. They both really embody the “no sharp elbows” Meltwater mantra.\r\n\r\n&nbsp;\r\n\r\nAnd as the lights went out on 2015, Ben had sold $839,398 during the year, which sets a new record for Client Acquisition.\r\n\r\n&nbsp;\r\n\r\nI’ve had the privilege of watching Ben develop as a young SC and will always remember our first 1-1 when I moved back to Washington, D.C. – after missing his last target, he told me, he “knew (he) could be great and just needed to tighten a few screws to get the engine where it needed to be. Right now I’m like a Ford, but I know I can be a Ferrari!” Nearly 36 months later, he’s managed some of the company's most successful sellers, has been to MEST twice, is 33 for 33 of his targets (another record?!), has set two new company records and was instrumental in taking Austin to the next level in 2015.\r\n\r\n&nbsp;\r\n\r\nSales aside, he is a true cultural ambassador for Meltwater and cares tremendously about not only the sales he does, but also the people he manages. This is evident in the hard work and sacrifice he puts in during and outside of work hours. Very few people dedicate themselves to their craft as much as he has over the last 3 ½ years.\r\n\r\n&nbsp;\r\n\r\nI encourage you all to send much deserved congratulations via email (ben.kessler@meltwater.com) and his preferred social channels Snapchat (bk-lounge) &amp; Instagram (BK_LOUNGE_) and to reach out to him about his success story. It is one that is truly inspiring and proves that the urge to succeed and overcome is a force that can drive people to do incredible things.\r\n\r\n&nbsp;\r\n\r\n CA Austin\r\n\r\n&nbsp;\r\n\r\nYou can tag colleagues in the comments below by using the hashtag symbol and their email address, for example: #ben.kessler@meltwater.com\r\n\r\n&nbsp;\r\n\r\n&nbsp;",
      "url": "http://demotest.a3logics.com/mlife/2015-a-sales-odyssey/?autologin_code=M7ODgQwIyX903UmWAJoV2PtUI1s3vv",
      "image": "http://demotest.a3logics.com/mlife/wp-content/uploads/2016/01/Ben-Kessler-Featured-1.png"
    },
    {
      "ID": "6026",
      "post_title": "Meltwater Data Scientist Invited to Present at Google Tech Talk Stockholm",
      "post_date": "2016-01-04 16:52:48",
      "post_content": "Google Tech Talks is a series of presentations by invited speakers sponsored by Google given at various Google offices throughout the world. It's a prestigious venue to speak at and it's by invitation only.\r\n\r\n&nbsp;\r\n\r\nA few weeks ago, Google Tech Talks Stockholm invited one of our data scientists, Sahar Asadi, PhD in Artificial Intelligence, to speak at their tech talk. Sahar is also the organizer of another Meltwater funded event, the Stockholm NLP meetup that over the past year has grown to become a popular data science meetup in its own right.\r\n\r\n&nbsp;\r\n\r\nThe Google Tech Talk that Sahar gave was well attended, with more than 150 data scientists, engineers and other interested members in the audience. She spoke about Data Science and NLP at Meltwater and the state-of-the-art research that we conduct in-house.\r\n\r\n&nbsp;\r\n\r\nCheck out her presentation below and leave her some kudos in the comments by tagging her: #sahar.asadi@meltwater.com\r\n\r\n&nbsp;\r\n\r\n\r\n\r\n&nbsp;",
      "url": "http://demotest.a3logics.com/mlife/meltwater-data-scientist-invited-to-present-at-google-tech-talk-stockholm/?autologin_code=M7ODgQwIyX903UmWAJoV2PtUI1s3vv",
      "image": "http://demotest.a3logics.com/mlife/wp-content/uploads/2015/12/Google-Tech-Talk.jpg"
    },
    {
      "ID": "5965",
      "post_title": "Meltwater Babies: Welcoming our Newest Newbies!",
      "post_date": "2016-01-04 16:50:55",
      "post_content": "&nbsp;\r\n\r\nMeltwater world – Please meet:\r\n\r\n&nbsp;\r\n\r\nArav Jajwani – Son of Jay Jajwani, Regional Manager SalesOps APAC\r\n\r\n&nbsp;\r\n\r\n\r\n\r\n&nbsp;\r\n\r\nJosephine Iris Butler – Daughter of Ellie Butler, Sr. HR Manager, EMEA\r\n\r\n&nbsp;\r\n\r\n\r\n\r\n&nbsp;\r\n\r\nBlake &amp; Lila Jones – Twins of Dale Jones, Area Director, The South\r\n\r\n&nbsp;\r\n\r\n\r\n\r\n&nbsp;\r\n\r\nAlex Camuso – Son of Jon Camuso, Sr. Software Engineer, New Hampshire\r\n\r\n&nbsp;\r\n\r\n\r\n\r\n&nbsp;\r\n\r\nMeltwater is definitely experiencing a baby boom! Congratulations to all new parents on your newest family additions :)\r\n\r\n&nbsp;\r\n\r\nIf you are you having a baby soon, be sure to contact HR. Beyond the obvious stuff (benefits and leave), you’ll want your baby striking a pose in a super-cool Meltwater onesie. We want your baby to join the Meltwater family from the start!\r\n\r\n&nbsp;\r\n\r\nAlso, for all of you who are already parents, remember that Meltwater’s global family leave program grants you three (3) Child Leave Days per calendar year.\r\n\r\n&nbsp;\r\n\r\nWe aim for Meltwater to be the place where you can balance a successful career and happy family life. We believe that this will lead to long-term job satisfaction, as much as a strong contribution to the company’s success.\r\n\r\n&nbsp;\r\n\r\n#wewelcomebabies\r\n\r\n&nbsp;\r\n\r\nYour HR Team :)\r\n\r\n&nbsp;\r\n\r\nP.S. If you’ve had a baby recently (less than 6 months) and would like to have a onesie for your baby, please reach out to your local HR partner.\r\n\r\n&nbsp;\r\n\r\nYou can tag colleagues in the comments below by using the hashtag symbol and their email address, for example: #inga.boesecke@meltwater.com\r\n\r\n&nbsp;",
      "url": "http://demotest.a3logics.com/mlife/meltwater-babies-welcoming-our-newest-newbies/?autologin_code=M7ODgQwIyX903UmWAJoV2PtUI1s3vv",
      "image": "http://demotest.a3logics.com/mlife/wp-content/uploads/2015/12/Baby-Onesie_Blake-and-Lila-Jones.png"
    }
  ],
  "site_url": "http://demotest.a3logics.com/mlife?autologin_code=M7ODgQwIyX903UmWAJoV2PtUI1s3vv"
}
